{
    "info": {
        "_postman_id": "ea90a5eb-7f8a-4f35-8824-ff00021c6c1a",
        "name": "evermos",
        "schema": "https://schema.getpostman.com/json/collection/v2.1.0/collection.json"
    },
    "item": [
        {
            "name": "transaction",
            "item": [
                {
                    "name": "transaction.list",
                    "request": {
                        "method": "GET",
                        "header": [],
                        "url": {
                            "raw": "{{base_url}}/transaction",
                            "host": ["{{base_url}}"],
                            "path": ["transaction"]
                        }
                    },
                    "response": []
                },
                {
                    "name": "checkout",
                    "request": {
                        "method": "POST",
                        "header": [],
                        "body": {
                            "mode": "formdata",
                            "formdata": [
                                {
                                    "key": "user_id",
                                    "value": "1",
                                    "type": "text",
                                    "disabled": true
                                },
                                {
                                    "key": "stock_id",
                                    "value": "1",
                                    "type": "text"
                                },
                                {
                                    "key": "jumlah",
                                    "value": "10",
                                    "type": "text"
                                },
                                {
                                    "key": "onhold_variable",
                                    "value": "1.4",
                                    "description": "[kongis].maks_onhold",
                                    "type": "text"
                                }
                            ]
                        },
                        "url": {
                            "raw": "{{base_url}}/transaction",
                            "host": ["{{base_url}}"],
                            "path": ["transaction"]
                        }
                    },
                    "response": []
                },
                {
                    "name": "payment",
                    "request": {
                        "method": "GET",
                        "header": [],
                        "url": {
                            "raw": ""
                        }
                    },
                    "response": []
                }
            ]
        },
        {
            "name": "stock",
            "item": [
                {
                    "name": "stock.list",
                    "request": {
                        "method": "GET",
                        "header": [],
                        "url": {
                            "raw": "localhost:8000/api/transaction",
                            "host": ["localhost"],
                            "port": "8000",
                            "path": ["api", "transaction"]
                        }
                    },
                    "response": []
                }
            ]
        }
    ]
}
